\relax 
\@writefile{toc}{\contentsline {section}{\numberline {1}Background}{1}}
\@writefile{toc}{\contentsline {section}{\numberline {2}Appointment types}{2}}
\@writefile{toc}{\contentsline {section}{\numberline {3}Model overview}{2}}
\@writefile{toc}{\contentsline {section}{\numberline {4}Model inputs}{2}}
\@writefile{lof}{\contentsline {figure}{\numberline {1}{\ignorespaces Model overview\relax }}{3}}
\providecommand*\caption@xref[2]{\@setref\relax\@undefined{#1}}
\newlabel{fig:process}{{1}{3}}
\@writefile{toc}{\contentsline {section}{\numberline {5}Model inputs}{3}}
\@writefile{toc}{\contentsline {section}{\numberline {6}Model outputs}{4}}
\@writefile{toc}{\contentsline {section}{\numberline {7}Model assumptions and simplifications}{5}}
