\contentsline {section}{\numberline {1}Background}{1}
\contentsline {section}{\numberline {2}Appointment types}{2}
\contentsline {section}{\numberline {3}Model overview}{2}
\contentsline {section}{\numberline {4}Model inputs}{2}
\contentsline {section}{\numberline {5}Model inputs}{3}
\contentsline {section}{\numberline {6}Model outputs}{4}
\contentsline {section}{\numberline {7}Model assumptions and simplifications}{5}
